%YAML 1.1
%TAG !u! tag:unity3d.com,2011:
--- !u!74 &7400000
AnimationClip:
  m_ObjectHideFlags: 0
  m_CorrespondingSourceObject: {fileID: 0}
  m_PrefabInstance: {fileID: 0}
  m_PrefabAsset: {fileID: 0}
  m_Name: enemy_mover
  serializedVersion: 6
  m_Legacy: 0
  m_Compressed: 0
  m_UseHighQualityCurve: 1
  m_RotationCurves: []
  m_CompressedRotationCurves: []
  m_EulerCurves: []
  m_PositionCurves: []
  m_ScaleCurves: []
  m_FloatCurves: []
  m_PPtrCurves:
  - curve:
    - time: 0
      value: {fileID: 21300000, guid: 21459cac9c57a844b97a4439ad48292e, type: 3}
    - time: 0.041666668
      value: {fileID: 21300000, guid: 611235a87a153f14b8343ae8e5747941, type: 3}
    - time: 0.083333336
      value: {fileID: 21300000, guid: dccd41cbcba03df4eb4285e20e013a34, type: 3}
    - time: 0.125
      value: {fileID: 21300000, guid: 28a409cb469677c4ab38b49aacfc87d6, type: 3}
    - time: 0.16666667
      value: {fileID: 21300000, guid: 17f4f129ea01067449860fd040ef2740, type: 3}
    - time: 0.20833333
      value: {fileID: 21300000, guid: 3761224a6d1210548b489909d7741be2, type: 3}
    - time: 0.25
      value: {fileID: 21300000, guid: c3f867f38f9b33148863c3c3a1bd747f, type: 3}
    - time: 0.29166666
      value: {fileID: 21300000, guid: 7d75f1e17ecb0254c87494773865c2a9, type: 3}
    - time: 0.33333334
      value: {fileID: 21300000, guid: 45aa471c70e73b24f9c24a06adf64c0e, type: 3}
    - time: 0.375
      value: {fileID: 21300000, guid: a076c08b78ae05646a39e827836a21eb, type: 3}
    - time: 0.41666666
      value: {fileID: 21300000, guid: 74d7eab4da2122d449d7dbd5e2319fd9, type: 3}
    - time: 0.45833334
      value: {fileID: 21300000, guid: d0a2e3707a7349842bbe928f9d9fddef, type: 3}
    - time: 0.5
      value: {fileID: 21300000, guid: c097fe2e996db8e4d979e08e3865b46a, type: 3}
    - time: 0.5416667
      value: {fileID: 21300000, guid: 6285d5a2536e0bd4e9afe8c917100f28, type: 3}
    - time: 0.5833333
      value: {fileID: 21300000, guid: 0d3823d23a230164d9f6fa98a88d666e, type: 3}
    - time: 0.625
      value: {fileID: 21300000, guid: 84ae5f5ba6c84ac46a04da89d43843f9, type: 3}
    - time: 0.6666667
      value: {fileID: 21300000, guid: 603717e14c1f4cc4786e7f88f0d9d339, type: 3}
    - time: 0.7083333
      value: {fileID: 21300000, guid: 837f0aefc2ac58f4ea50e0de13961b42, type: 3}
    - time: 0.75
      value: {fileID: 21300000, guid: 4ed20956d48236e478551d52fab424ac, type: 3}
    - time: 0.7916667
      value: {fileID: 21300000, guid: 0178a6f1be3b9f340ae1b9436b0a3dfe, type: 3}
    - time: 0.8333333
      value: {fileID: 21300000, guid: b3e75ab4eb121254cbbcb6ace51196d5, type: 3}
    - time: 0.875
      value: {fileID: 21300000, guid: 63477abd49556804d848615f69d66684, type: 3}
    - time: 0.9166667
      value: {fileID: 21300000, guid: ed5cd2ca7dc9dae4e81353ff5ca154dd, type: 3}
    - time: 0.9583333
      value: {fileID: 21300000, guid: fac3bb7a511c735468718797c49d9276, type: 3}
    - time: 1
      value: {fileID: 21300000, guid: bc8cbd9c846bf6e42906b1287d7cb1c3, type: 3}
    attribute: m_Sprite
    path: 
    classID: 212
    script: {fileID: 0}
  m_SampleRate: 24
  m_WrapMode: 0
  m_Bounds:
    m_Center: {x: 0, y: 0, z: 0}
    m_Extent: {x: 0, y: 0, z: 0}
  m_ClipBindingConstant:
    genericBindings:
    - serializedVersion: 2
      path: 0
      attribute: 0
      script: {fileID: 0}
      typeID: 212
      customType: 23
      isPPtrCurve: 1
    pptrCurveMapping:
    - {fileID: 21300000, guid: 21459cac9c57a844b97a4439ad48292e, type: 3}
    - {fileID: 21300000, guid: 611235a87a153f14b8343ae8e5747941, type: 3}
    - {fileID: 21300000, guid: dccd41cbcba03df4eb4285e20e013a34, type: 3}
    - {fileID: 21300000, guid: 28a409cb469677c4ab38b49aacfc87d6, type: 3}
    - {fileID: 21300000, guid: 17f4f129ea01067449860fd040ef2740, type: 3}
    - {fileID: 21300000, guid: 3761224a6d1210548b489909d7741be2, type: 3}
    - {fileID: 21300000, guid: c3f867f38f9b33148863c3c3a1bd747f, type: 3}
    - {fileID: 21300000, guid: 7d75f1e17ecb0254c87494773865c2a9, type: 3}
    - {fileID: 21300000, guid: 45aa471c70e73b24f9c24a06adf64c0e, type: 3}
    - {fileID: 21300000, guid: a076c08b78ae05646a39e827836a21eb, type: 3}
    - {fileID: 21300000, guid: 74d7eab4da2122d449d7dbd5e2319fd9, type: 3}
    - {fileID: 21300000, guid: d0a2e3707a7349842bbe928f9d9fddef, type: 3}
    - {fileID: 21300000, guid: c097fe2e996db8e4d979e08e3865b46a, type: 3}
    - {fileID: 21300000, guid: 6285d5a2536e0bd4e9afe8c917100f28, type: 3}
    - {fileID: 21300000, guid: 0d3823d23a230164d9f6fa98a88d666e, type: 3}
    - {fileID: 21300000, guid: 84ae5f5ba6c84ac46a04da89d43843f9, type: 3}
    - {fileID: 21300000, guid: 603717e14c1f4cc4786e7f88f0d9d339, type: 3}
    - {fileID: 21300000, guid: 837f0aefc2ac58f4ea50e0de13961b42, type: 3}
    - {fileID: 21300000, guid: 4ed20956d48236e478551d52fab424ac, type: 3}
    - {fileID: 21300000, guid: 0178a6f1be3b9f340ae1b9436b0a3dfe, type: 3}
    - {fileID: 21300000, guid: b3e75ab4eb121254cbbcb6ace51196d5, type: 3}
    - {fileID: 21300000, guid: 63477abd49556804d848615f69d66684, type: 3}
    - {fileID: 21300000, guid: ed5cd2ca7dc9dae4e81353ff5ca154dd, type: 3}
    - {fileID: 21300000, guid: fac3bb7a511c735468718797c49d9276, type: 3}
    - {fileID: 21300000, guid: bc8cbd9c846bf6e42906b1287d7cb1c3, type: 3}
  m_AnimationClipSettings:
    serializedVersion: 2
    m_AdditiveReferencePoseClip: {fileID: 0}
    m_AdditiveReferencePoseTime: 0
    m_StartTime: 0
    m_StopTime: 1.0416666
    m_OrientationOffsetY: 0
    m_Level: 0
    m_CycleOffset: 0
    m_HasAdditiveReferencePose: 0
    m_LoopTime: 1
    m_LoopBlend: 0
    m_LoopBlendOrientation: 0
    m_LoopBlendPositionY: 0
    m_LoopBlendPositionXZ: 0
    m_KeepOriginalOrientation: 0
    m_KeepOriginalPositionY: 1
    m_KeepOriginalPositionXZ: 0
    m_HeightFromFeet: 0
    m_Mirror: 0
  m_EditorCurves: []
  m_EulerEditorCurves: []
  m_HasGenericRootTransform: 0
  m_HasMotionFloatCurves: 0
  m_Events: []
